<svg width="24" height="14" viewBox="0 0 24 14" fill="none" xmlns="http://www.w3.org/2000/svg">
<path d="M20.8156 0.897794C21.4243 0.335888 22.3733 0.373848 22.9352 0.982579C23.4971 1.59131 23.4592 2.5403 22.8504 3.1022L20.8156 0.897794ZM12.083 11L13.1004 12.1022L12.083 13.0414L11.0656 12.1022L12.083 11ZM1.31559 3.1022C0.706856 2.5403 0.668898 1.59131 1.2308 0.982579C1.79271 0.373848 2.7417 0.335888 3.35043 0.897794L1.31559 3.1022ZM22.8504 3.1022L13.1004 12.1022L11.0656 9.89779L20.8156 0.897794L22.8504 3.1022ZM11.0656 12.1022L1.31559 3.1022L3.35043 0.897794L13.1004 9.89779L11.0656 12.1022Z" fill="#3A3A3A"/>
</svg>
