<svg width="8" height="8" viewBox="0 0 8 8" fill="none" xmlns="http://www.w3.org/2000/svg">
<path d="M7.89201 4C7.89201 6.20914 6.12533 8 3.94601 8C1.76669 8 0 6.20914 0 4C0 1.79086 1.76669 0 3.94601 0C6.12533 0 7.89201 1.79086 7.89201 4Z" fill="#FF2727"/>
</svg>
