<svg width="20" height="20" viewBox="0 0 20 20" fill="none" xmlns="http://www.w3.org/2000/svg">
<circle cx="8.46222" cy="8.46222" r="7.46222" fill="#0092FF" stroke="white" stroke-width="2"/>
<path d="M18.5196 18.52L13.8066 13.807" stroke="white" stroke-width="2" stroke-linecap="round"/>
</svg>
