<svg width="80" height="80" viewBox="0 0 80 80" fill="none" xmlns="http://www.w3.org/2000/svg">
<rect width="80" height="80" rx="40" fill="#0092FF"/>
<path d="M54.0928 33.0285L53.0779 31.2633C52.6652 30.546 51.9854 30.0219 51.1877 29.8061C50.3899 29.5902 49.5392 29.7002 48.8223 30.112C48.4704 30.3198 48.0811 30.4559 47.6766 30.5127C47.2721 30.5695 46.8605 30.5458 46.4652 30.4429C46.0699 30.3401 45.6987 30.1601 45.3729 29.9133C45.0471 29.6664 44.7731 29.3577 44.5666 29.0046C44.2982 28.5514 44.1541 28.0352 44.1488 27.5082V27.5082C44.1607 27.0903 44.0888 26.6741 43.9374 26.2845C43.786 25.8948 43.5581 25.5395 43.2672 25.2397C42.9764 24.9398 42.6285 24.7014 42.2441 24.5386C41.8596 24.3759 41.4466 24.292 41.0292 24.292H38.984C38.5748 24.292 38.1698 24.373 37.792 24.5303C37.4142 24.6877 37.0712 24.9182 36.7827 25.2088C36.4941 25.4994 36.2657 25.8443 36.1105 26.2236C35.9554 26.6029 35.8766 27.0092 35.8786 27.4191V27.4191C35.8651 28.2392 35.5305 29.0212 34.947 29.5965C34.3634 30.1718 33.5777 30.4943 32.7591 30.4945C32.2337 30.4907 31.7185 30.3481 31.2657 30.081V30.081C30.5488 29.6692 29.6981 29.5592 28.9003 29.775C28.1025 29.9909 27.4228 30.515 27.0101 31.2323L25.9216 33.0285C25.5095 33.7451 25.3976 34.5962 25.6103 35.3954C25.823 36.1946 26.343 36.8768 27.0565 37.2927V37.2927C27.5317 37.5676 27.9262 37.9632 28.2001 38.4396C28.4741 38.916 28.6179 39.4564 28.6169 40.0063C28.6179 40.5561 28.4741 41.0965 28.2001 41.5729C27.9262 42.0493 27.5317 42.4449 27.0565 42.7199V42.7199C26.344 43.1328 25.8243 43.8122 25.6115 44.6089C25.3987 45.4055 25.5103 46.2543 25.9216 46.9686V46.9686L26.9533 48.7492C27.1526 49.1095 27.4209 49.4268 27.743 49.6829C28.065 49.939 28.4343 50.1288 28.8298 50.2414C29.2252 50.3541 29.639 50.3873 30.0473 50.3392C30.4556 50.2911 30.8504 50.1627 31.209 49.9613C31.5616 49.7558 31.9513 49.6222 32.3556 49.5681C32.76 49.5141 33.171 49.5407 33.5651 49.6464C33.9591 49.752 34.3284 49.9347 34.6518 50.1839C34.9751 50.4331 35.2461 50.7439 35.4492 51.0984C35.7176 51.5516 35.8617 52.0678 35.867 52.5947C35.867 53.4241 36.1958 54.2195 36.7811 54.8059C37.3663 55.3924 38.1601 55.7218 38.9878 55.7218H41.0331C41.8581 55.7218 42.6496 55.3945 43.2344 54.8114C43.8192 54.2283 44.1498 53.4369 44.1539 52.6103V52.6103C44.1519 52.199 44.2312 51.7915 44.3873 51.4111C44.5434 51.0308 44.7732 50.6853 45.0634 50.3945C45.3536 50.1037 45.6985 49.8734 46.078 49.717C46.4576 49.5606 46.8643 49.4811 47.2748 49.4832C47.7994 49.4971 48.3124 49.6409 48.7681 49.9018V49.9018C49.4833 50.3148 50.3327 50.4269 51.1303 50.2138C51.9279 50.0007 52.6087 49.4797 53.0238 48.7647V48.7647L54.0993 46.9699C54.3054 46.6155 54.4396 46.2238 54.4941 45.8173C54.5486 45.4108 54.5223 44.9976 54.4169 44.6013C54.3114 44.205 54.1288 43.8335 53.8795 43.5082C53.6303 43.1828 53.3193 42.9101 52.9644 42.7056V42.7056C52.6096 42.5012 52.2986 42.2284 52.0494 41.9031C51.8001 41.5778 51.6175 41.2063 51.512 40.81C51.4066 40.4137 51.3803 40.0004 51.4348 39.594C51.4893 39.1875 51.6235 38.7958 51.8296 38.4414C52.1002 37.968 52.4919 37.5754 52.9644 37.3043V37.3043C53.6738 36.8885 54.1908 36.2091 54.4033 35.4136C54.6158 34.6182 54.5065 33.7708 54.0993 33.0556V33.0556L54.0928 33.0285Z" stroke="white" stroke-width="2" stroke-miterlimit="10" stroke-linecap="round" stroke-linejoin="round"/>
<path d="M40.0144 44.3077C42.3889 44.3077 44.3139 42.3789 44.3139 39.9996C44.3139 37.6202 42.3889 35.6914 40.0144 35.6914C37.6398 35.6914 35.7148 37.6202 35.7148 39.9996C35.7148 42.3789 37.6398 44.3077 40.0144 44.3077Z" stroke="white" stroke-width="2" stroke-miterlimit="10" stroke-linecap="round" stroke-linejoin="round"/>
</svg>
